^C:\USERS\PAULO\DESKTOP\LINEARSEARCH\LINEARSEARCH\DEBUG\SOURCE.OBJ
C:\USERS\PAULO\DESKTOP\LINEARSEARCH\DEBUG\LINEARSEARCH.ILK
C:\USERS\PAULO\DESKTOP\LINEARSEARCH\DEBUG\LINEARSEARCH.EXE
C:\USERS\PAULO\DESKTOP\LINEARSEARCH\DEBUG\LINEARSEARCH.PDB
